  CNT  SCCHANGE
1  AUS 31.878871
2  BGR 18.859649
3  DEU 20.279828
4  DNK  7.862030
5  ESP  8.090855
6  GRC  6.832972
7  HKG  3.265535
8  HRV  9.158203
9  HUN 11.664899
10 ISL  9.344408
11 ITA 13.502547
12 KOR  2.006809
13 LTU 11.478927
14 LVA  6.798110
15 PER 13.785684
16 POL  4.466280
17 QCH  1.605528
18 QES  7.871946
19 SVK 11.070866
20 SVN 10.287231
21 THA  8.073706
   CNT    CHANGE
1  AUS 31.878871
2  BGR 18.859649
3  DEU 20.279828
4  DNK  7.554811
5  ESP  8.120546
6  GRC  6.923355
7  HKG  3.433476
8  HRV  7.901532
9  HUN 11.629551
10 ISL  9.344408
11 ITA 12.716913
12 KOR  1.953055
13 LTU 11.218391
14 LVA  6.982953
15 PER 13.785684
16 POL  4.466280
17 QCH  2.083122
18 QES  7.692546
19 SVK 10.110236
20 SVN  9.147674
21 THA  9.322342
   CNT  SADDINST
1  AUS 32.512044
2  BGR 18.168016
3  DEU 34.809348
4  DNK 34.757715
5  ESP 15.439430
6  GRC  9.942155
7  HKG 10.617653
8  HRV 19.469788
9  HUN 19.317780
10 ISL 26.045684
11 ITA 26.271260
12 KOR  7.382190
13 LTU 17.103448
14 LVA 10.844116
15 PER  6.240138
16 POL  6.900402
17 QCH  8.413779
18 QES 15.255181
19 SVK 14.944882
20 SVN 11.910709
21 THA 12.413626
   CNT  HADDINST
1  AUS 32.512044
2  BGR 18.168016
3  DEU 34.809348
4  DNK 34.757715
5  ESP 15.439430
6  GRC  9.942155
7  HKG 10.617653
8  HRV 19.469788
9  HUN 19.317780
10 ISL 26.045684
11 ITA 26.271260
12 KOR  7.382190
13 LTU 17.103448
14 LVA 10.844116
15 PER  6.240138
16 POL  6.900402
17 QCH  8.413779
18 QES 15.255181
19 SVK 14.944882
20 SVN 11.910709
21 THA 12.413626
  CNT ADDSCIIN
1 BGR 45.96829
2 GRC 36.42444
3 THA 47.35119
  CNT COMSCSUP
1 GRC 39.67824
2 PER 49.20384
3 THA 28.01552
  CNT COMSCSTRLE
1 GRC   39.98554
2 THA   28.05189
  CNT COMSCSTRCO
1 GRC   39.98554
2 PER   49.94979
3 THA   28.10038
  CNT COMSCTSREL
1 GRC   39.35286
2 THA   27.94278
  CNT COMMASUP
1 GRC 35.82791
2 HKG 42.82515
3 KOR 26.01684
4 LVA 49.10659
5 PER 44.29781
6 POL 44.43948
7 QCH 37.59781
8 SVN 48.89166
9 THA 28.23373
  CNT COMMASTRLE
1 GRC   37.00289
2 HKG   42.58257
3 KOR   25.87350
4 LVA   49.80489
5 PER   46.37785
6 POL   44.86378
7 QCH   37.57748
8 SVN   49.98439
9 THA   28.48830
  CNT COMMASTRCO
1 GRC   36.84020
2 HKG   42.58257
3 KOR   25.89142
4 LVA   49.59951
5 PER   46.03357
6 POL   44.86378
7 QCH   37.74007
8 THA   28.64590
  CNT COMMATSREL
1 GRC   35.50253
2 HKG   42.37731
3 KOR   25.71224
4 LVA   48.81906
5 PER   46.77952
6 POL   44.41715
7 QCH   37.46570
8 SVN   48.81361
9 THA   28.41557
   CNT   PRESUPP
1  CHL  8.110024
2  DEU 48.078106
3  DOM  4.620253
4  ESP 30.537411
5  FRA 12.868369
6  GEO  3.837472
7  HKG  2.481806
8  HRV  7.591668
9  IRL 11.304651
10 ITA 22.144522
11 KOR  1.146748
12 LUX 38.573316
13 MAC  1.876676
14 MEX  7.174947
15 MLT 13.896533
16 PRT  7.044369
   CNT    CURSUPP
1  CHL  7.8973486
2  DEU 47.8474785
3  DOM  3.6286920
4  ESP 30.2404988
5  FRA 12.4754420
6  GEO  3.2731377
7  HKG  2.1645829
8  HRV  7.1440868
9  IRL 10.9911165
10 ITA 22.0236554
11 KOR  0.8958968
12 LUX 38.2336290
13 MAC  1.3404826
14 MEX  6.9106765
15 MLT 12.9884425
16 PRT  6.3071672
   CNT   EMOSUPP
1  CHL 10.236779
2  DEU 47.924354
3  DOM  4.156118
4  ESP 30.240499
5  FRA 12.639162
6  GEO  4.100828
7  HKG  2.257884
8  HRV  7.092443
9  IRL 11.356906
10 ITA 22.835190
11 KOR  1.003404
12 LUX 38.950745
13 MAC  1.318141
14 MEX  7.148520
15 MLT 13.153550
16 PRT  6.416382
   CNT   PQSCHOOL
1  CHL  9.2442932
2  DEU 48.1242312
3  DOM  3.7341772
4  ESP 30.3889549
5  FRA 13.1466929
6  GEO  3.4424379
7  HKG  2.1086024
8  HRV  7.3678774
9  IRL 11.3046508
10 ITA 22.6107226
11 KOR  0.7525533
12 LUX 39.2338177
13 MAC  1.3851653
14 MEX  7.3070825
15 MLT 13.3736929
16 PRT  6.5255973
   CNT  PASCHPOL
1  CHL  9.343542
2  DEU 48.493235
3  DOM  3.839662
4  ESP 30.596793
5  FRA 14.947610
6  GEO  5.229496
7  HKG  2.201903
8  HRV  7.763815
9  IRL 11.426581
10 ITA 23.145990
11 KOR  1.379681
12 LUX 39.988677
13 MAC  1.407507
14 MEX  7.650634
15 MLT 13.676390
16 PRT  6.880546
   CNT  PQGENSCI
1  CHL  9.726358
2  DEU 48.708487
3  DOM 11.645570
4  ESP 31.250000
5  FRA 14.652914
6  GEO  8.615500
7  HKG  2.817690
8  HRV  8.331899
9  IRL 11.792371
10 ITA 23.128723
11 KOR  1.379681
12 LUX 39.535761
13 MAC  2.546917
14 MEX  9.011628
15 MLT 15.657677
16 PRT  7.153584
   CNT  PQENPERC
1  CHL  9.669644
2  DEU 48.939114
3  DOM 12.025316
4  ESP 30.819477
5  FRA 14.865750
6  GEO  7.468021
7  HKG  2.817690
8  HRV  8.090893
9  IRL 11.740115
10 ITA 22.921523
11 KOR  1.863465
12 LUX 39.781091
13 MAC  2.636282
14 MEX  8.747357
15 MLT 15.960374
16 PRT  7.221843
   CNT  PQENVOPT
1  CHL  8.521197
2  DEU 48.708487
3  DOM 12.215190
4  ESP 30.908551
5  FRA 14.341847
6  GEO  7.524454
7  HKG  2.724389
8  HRV  7.643312
9  IRL 11.844626
10 ITA 23.525857
11 KOR  1.899301
12 LUX 40.139649
13 MAC  2.323503
14 MEX  8.654863
15 MLT 15.987892
16 PRT  7.208191